{
  "@context": [
    "https://www.w3.org/ns/activitystreams",
    "https://gleasonator.com/schemas/litepub-0.1.jsonld",
    {
      "@language": "en"
    }
  ],
  "actor": "https://gleasonator.com/users/alex",
  "attachment": [],
  "attributedTo": "https://gleasonator.com/users/alex",
  "cc": [
    "https://gleasonator.com/users/alex/followers"
  ],
  "content": "The Mostr bridge is now being published on 3 relays:<br><br>- wss://relay.mostr.pub (run by me)<br>- wss://nostr.poster.place <span class=\"h-card\"><a class=\"u-url mention\" data-user=\"APPTkSInqzDxQVfFL6\" href=\"https://poster.place/users/verita84\" rel=\"ugc\">@<span>verita84</span></a></span><br>- wss://relay.shitforce.one <span class=\"h-card\"><a class=\"u-url mention\" data-user=\"A39C3gyyZz6rpdwyu0\" href=\"https://poa.st/users/graf\" rel=\"ugc\">@<span>graf</span></a></span><br><br>You can connect to any or all of them to ensure fediverse shitposts make it to your nostrsphere.",
  "contentMap": {
    "en": "The Mostr bridge is now being published on 3 relays:<br><br>- wss://relay.mostr.pub (run by me)<br>- wss://nostr.poster.place <span class=\"h-card\"><a class=\"u-url mention\" data-user=\"APPTkSInqzDxQVfFL6\" href=\"https://poster.place/users/verita84\" rel=\"ugc\">@<span>verita84</span></a></span><br>- wss://relay.shitforce.one <span class=\"h-card\"><a class=\"u-url mention\" data-user=\"A39C3gyyZz6rpdwyu0\" href=\"https://poa.st/users/graf\" rel=\"ugc\">@<span>graf</span></a></span><br><br>You can connect to any or all of them to ensure fediverse shitposts make it to your nostrsphere."
  },
  "context": "https://gleasonator.com/contexts/8c59d31d-a957-4574-bdcc-ff87f8e45e42",
  "conversation": "https://gleasonator.com/contexts/8c59d31d-a957-4574-bdcc-ff87f8e45e42",
  "id": "https://gleasonator.com/objects/043511be-03d7-408e-a981-09717a435f01",
  "published": "2023-03-01T05:20:33.513528Z",
  "sensitive": false,
  "source": {
    "content": "The Mostr bridge is now being published on 3 relays:\n\n- wss://relay.mostr.pub (run by me)\n- wss://nostr.poster.place @verita84@poster.place\n- wss://relay.shitforce.one @graf@poa.st\n\nYou can connect to any or all of them to ensure fediverse shitposts make it to your nostrsphere.",
    "mediaType": "text/plain"
  },
  "summary": "",
  "tag": [
    {
      "href": "https://poa.st/users/graf",
      "name": "@graf@poa.st",
      "type": "Mention"
    },
    {
      "href": "https://poster.place/users/verita84",
      "name": "@verita84@poster.place",
      "type": "Mention"
    }
  ],
  "to": [
    "https://www.w3.org/ns/activitystreams#Public",
    "https://poster.place/users/verita84",
    "https://poa.st/users/graf"
  ],
  "type": "Note"
}
