{
  "@context": [
    "https://www.w3.org/ns/activitystreams",
    "https://gleasonator.com/schemas/litepub-0.1.jsonld",
    {
      "@language": "en"
    }
  ],
  "actor": "https://gleasonator.com/users/alex",
  "attachment": [],
  "attributedTo": "https://gleasonator.com/users/alex",
  "cc": [
    "https://gleasonator.com/users/alex/followers"
  ],
  "content": "<p>👻</p>",
  "contentMap": {
    "en": "<p>👻</p>"
  },
  "context": "https://gleasonator.com/contexts/4388f4d2-be15-4ef7-9a2b-f45b6c9774c5",
  "conversation": "https://gleasonator.com/contexts/4388f4d2-be15-4ef7-9a2b-f45b6c9774c5",
  "id": "https://gleasonator.com/objects/40c2b180-4932-49f3-91cd-c07f8180d6c7",
  "published": "2023-03-15T00:57:30.451440Z",
  "sensitive": true,
  "source": {
    "content": "👻",
    "mediaType": "text/markdown"
  },
  "summary": "warning do not click",
  "tag": [],
  "to": [
    "https://www.w3.org/ns/activitystreams#Public"
  ],
  "type": "Note"
}
